1 10 20
100 200 125
201 210 89
900 1000 174
90421 736869 509
141905 534019 470
875387 969772 507
608138 230478 470
416261 779881 509
88694 206598 383
822364 777107 468
745391 542499 509
335218 234046 407
907427 776635 525
817206 841658 525
630977 621695 509
764801 457915 509
760054 998113 525
112497 246105 443
243439 457046 449
641448 759250 504
325214 262999 407
635135 235697 509
504550 666080 509
663930 222502 509
934229 450730 525
628469 384078 509
25427 327069 443
970560 733681 525
142942 215964 383
216902 861757 525
322970 914918 525
592231 784437 509
578177 411825 470
451966 894708 525
733601 658864 504
418377 491340 444
321025 741109 509
371410 549707 470
199043 466969 449
705992 183273 509
965416 328018 525
179875 572569 470
143020 15274 375
896509 548902 525
541036 972048 525
416394 922815 525
189542 274814 443
970933 172565 525
186797 735682 509
192233 862020 525
328889 182106 443
590692 218083 470
874354 404286 525
888697 799170 525
305167 271536 389
717810 917183 525
222977 573516 470
485833 951201 525
533768 971873 525
698172 257597 509
369432 396525 436
649411 694279 442
516715 751673 509
729999 521778 509
490444 593325 470
836921 837149 313
168323 511680 449
625826 411907 470
91492 583246 470
126536 773165 509
525416 410494 470
551491 468810 470
37963 416679 449
117687 50705 354
443730 725820 509
147876 455878 449
179315 75190 383
601604 891229 525
84851 385806 443
141716 398948 443
11958 555299 470
924623 733822 525
302415 939601 525
725119 452402 509
224435 259388 443
991648 982499 427
914757 309542 525
701680 60841 509
734127 863833 525
422372 581509 470
497657 421770 444
240258 384826 441
723263 524122 509
203968 613059 470
160473 352421 443
949807 677250 525
952782 906939 507
137816 835217 509
767297 917786 525
513952 611374 452
812070 684548 504
243890 985976 525
598073 11293 470
564265 69625 470
6151 229561 386
481199 379225 449
541540 270934 470
444818 713542 509
798862 987897 525
749989 266809 509
572330 807252 509
78310 870494 525
538431 743399 509
331565 368742 441
79209 564825 470
47390 818206 509
458724 944678 525
709147 452045 509
556040 98007 470
734897 370549 509
868387 580213 525
581630 484429 470
100662 776742 509
506625 493760 426
463144 774749 509
628737 518138 509
63445 636372 509
533786 15388 470
573501 106248 470
378396 224746 443
615902 514525 452
867187 707618 525
787682 908044 525
249556 866373 525
460732 756756 509
392421 279670 441
75770 289967 443
281887 48502 443
331131 582411 470
707982 802970 468
689254 292206 509
549234 891485 525
461207 381491 449
410498 940677 525
142462 508823 449
954893 75134 525
781601 765590 468
76637 474369 449
300717 958670 525
271047 15543 443
845929 120798 525
681429 227354 509
919967 552039 525
931633 928126 383
209830 781268 509
604909 263925 470
407471 302128 441
728096 982398 525
679606 276004 509
99560 713495 509
146023 524390 470
858016 124274 525
636625 355196 509
835084 319014 509
334618 752764 509
46293 963247 525
951453 407229 525
103543 120719 354
424746 2633 449
971661 379337 525
414766 303425 449
743459 299928 509
391348 243689 441
734743 794425 468
17529 685012 509
782821 23959 509
395188 366368 436
955654 425870 525
757616 162669 509
377793 952449 525
689846 449656 509
997013 370756 525
460332 201711 449
49818 551340 470
477619 877216 525
269498 323117 407
309191 491986 449
759372 75950 509
632704 563859 509
792596 38302 509
727758 96998 509
374071 417223 449
424521 273241 449
539558 167326 470
365538 384500 423
615574 521480 452
